{
    "$schema": "https://www.krakend.io/schema/v3.json",
    "version": 3,
    "name": "Sample Gateway",
    "port": 8080,
    "timeout": "30s",
    "cache_ttl": "300s",
    "extra_config": {
    "router": {
  "error_body": {
    "404": {
      "msg": "Unknown endpoint/The requested endpoint is not configured on KrakenD",
      "status": 404
    },
    "405": {
      "oh-my-god": "What on earth are you requesting?"
    }
  }
},
"telemetry/logging": {
  "level": "DEBUG",
  "prefix": "[KRAKEND]",
  "syslog": false,
  "stdout": true
},
"telemetry/gelf": {
  "address": "34.66.170.213:12201",
  "enable_tcp": false
},
"telemetry/opencensus": {
  "sample_rate": 100,
  "reporting_period": 0,
  "exporters": {
    "prometheus": {
        "port": 9091,
        "namespace": "krakend",
        "tag_host": false,
        "tag_path": true,
        "tag_method": true,
        "tag_statuscode": false
    },
    "jaeger": {
      "endpoint": "http://34.125.36.110:14268/api/traces",
      "service_name": "krakend"
    }
  }
},
"telemetry/influx":{
  "address": "http://34.125.36.110:8086",
  "ttl":"25s",
  "buffer_size":0,
  "db": "krakend",
  "username": "krakend",
  "password": "Password@123"
},
"telemetry/metrics": {
  "collection_time": "30s",
  "listen_address": ":8090"
},

"qos/ratelimit/service": {
  "max_rate": 2,
  "capacity": 1,
  "client_max_rate": 2,
  "key": "",
  "strategy": "ip",
  "client_capacity": 2
},

"security/cors": {
  "allow_origins": [
    "*"
  ],
  "expose_headers": [
    "Content-Length"
  ],
  "max_age": "12h",
  "allow_methods": [
    "GET",
    "HEAD",
    "POST"
  ]
}
}
,
    "endpoints": [
      {
  "endpoint": "/api/products/{userid}",
 "input_headers": [
        "Content-Type",
        "ClientId"
      ]
,
  "backend": [
  {
    "url_pattern": "/products/{userid}",
    "extra_config": {
      "qos/ratelimit/proxy": {
    "max_rate": 100,
    "capacity": 100
}

    },
    "host": ["http://34.125.36.110:3002/"]
  }
  ]
}

   ]
}
